<svg width="273" height="32" viewBox="0 0 273 32" fill="none" xmlns="http://www.w3.org/2000/svg">
<path d="M2.63762 30C2.40174 30 2.19802 29.9142 2.02647 29.7427C1.85492 29.5711 1.76914 29.3674 1.76914 29.1315V8.35218C1.76914 8.11629 1.85492 7.91257 2.02647 7.74102C2.19802 7.56947 2.40174 7.48369 2.63762 7.48369H7.71988C8.32031 7.48369 8.78136 7.77318 9.10302 8.35218L13.7671 16.0721L18.4312 8.35218C18.7529 7.77318 19.2139 7.48369 19.8144 7.48369H24.8966C25.1325 7.48369 25.3362 7.56947 25.5078 7.74102C25.6793 7.91257 25.7651 8.11629 25.7651 8.35218V29.1315C25.7651 29.3674 25.6793 29.5711 25.5078 29.7427C25.3362 29.9142 25.1325 30 24.8966 30H19.0745C18.8386 30 18.6349 29.9142 18.4634 29.7427C18.2918 29.5711 18.206 29.3674 18.206 29.1315V20.318L16.0831 23.7919C15.933 24.0278 15.7614 24.2208 15.5684 24.3709C15.3969 24.521 15.1717 24.5961 14.8929 24.5961H12.6413C12.3625 24.5961 12.1266 24.521 11.9336 24.3709C11.7621 24.2208 11.6013 24.0278 11.4512 23.7919L9.32819 20.318V29.1315C9.32819 29.3674 9.24241 29.5711 9.07086 29.7427C8.8993 29.9142 8.69558 30 8.4597 30H2.63762ZM35.8153 30C35.5794 30 35.3757 29.9142 35.2041 29.7427C35.0325 29.5711 34.9468 29.3674 34.9468 29.1315V22.7948L27.7094 8.48084C27.6665 8.39506 27.6451 8.29857 27.6451 8.19134C27.6451 7.99835 27.7094 7.83752 27.838 7.70885C27.9882 7.55874 28.1597 7.48369 28.3527 7.48369H34.3999C34.7645 7.48369 35.054 7.58019 35.2684 7.77318C35.5043 7.94474 35.6651 8.11629 35.7509 8.28784L38.9675 14.7532L42.1842 8.28784C42.2699 8.11629 42.42 7.94474 42.6345 7.77318C42.8704 7.58019 43.1706 7.48369 43.5351 7.48369H49.5824C49.7754 7.48369 49.9362 7.55874 50.0649 7.70885C50.215 7.83752 50.29 7.99835 50.29 8.19134C50.29 8.29857 50.2686 8.39506 50.2257 8.48084L42.9883 22.7948V29.1315C42.9883 29.3674 42.9025 29.5711 42.731 29.7427C42.5594 29.9142 42.3557 30 42.1198 30H35.8153ZM58.1117 30C57.8758 30 57.6721 29.9142 57.5005 29.7427C57.329 29.5711 57.2432 29.3674 57.2432 29.1315V8.35218C57.2432 8.11629 57.329 7.91257 57.5005 7.74102C57.6721 7.56947 57.8758 7.48369 58.1117 7.48369H74.3234C74.5593 7.48369 74.763 7.56947 74.9346 7.74102C75.1061 7.91257 75.1919 8.11629 75.1919 8.35218V13.2414C75.1919 13.4773 75.1061 13.681 74.9346 13.8526C74.763 14.0241 74.5593 14.1099 74.3234 14.1099H65.1239V16.4902H73.6801C73.916 16.4902 74.1197 16.576 74.2913 16.7475C74.4628 16.9191 74.5486 17.1228 74.5486 17.3587V22.2158C74.5486 22.4517 74.4628 22.6554 74.2913 22.8269C74.1197 22.9985 73.916 23.0843 73.6801 23.0843H65.1239V29.1315C65.1239 29.3674 65.0381 29.5711 64.8666 29.7427C64.695 29.9142 64.4913 30 64.2554 30H58.1117ZM88.0456 30.3217C84.8289 30.3217 82.2664 29.5818 80.3578 28.1022C78.4493 26.6226 77.4307 24.4674 77.3021 21.6368C77.2806 21.0578 77.2699 20.125 77.2699 18.8383C77.2699 17.5303 77.2806 16.576 77.3021 15.9756C77.3664 14.1314 77.8489 12.5445 78.7495 11.215C79.6716 9.88543 80.9261 8.87756 82.513 8.19134C84.0998 7.50513 85.944 7.16203 88.0456 7.16203C90.1471 7.16203 91.9913 7.50513 93.5781 8.19134C95.165 8.87756 96.4088 9.88543 97.3094 11.215C98.2315 12.5445 98.7247 14.1314 98.789 15.9756C98.8319 17.1764 98.8534 18.1307 98.8534 18.8383C98.8534 19.546 98.8319 20.4788 98.789 21.6368C98.6604 24.4674 97.6418 26.6226 95.7333 28.1022C93.8247 29.5818 91.2622 30.3217 88.0456 30.3217ZM88.0456 24.0493C88.7747 24.0493 89.3429 23.8348 89.7504 23.4059C90.1792 22.9771 90.4044 22.323 90.4258 21.4438C90.4687 20.2 90.4902 19.2887 90.4902 18.7097C90.4902 18.0878 90.4687 17.1979 90.4258 16.0399C90.4044 15.1607 90.1792 14.5066 89.7504 14.0778C89.3215 13.6489 88.7532 13.4344 88.0456 13.4344C87.3379 13.4344 86.7696 13.6489 86.3407 14.0778C85.9119 14.5066 85.6867 15.1607 85.6653 16.0399C85.6438 16.6189 85.6331 17.5088 85.6331 18.7097C85.6331 19.9105 85.6438 20.8219 85.6653 21.4438C85.6867 22.323 85.9011 22.9771 86.3086 23.4059C86.7375 23.8348 87.3165 24.0493 88.0456 24.0493ZM111.919 30.3217C108.702 30.3217 106.14 29.5818 104.231 28.1022C102.323 26.6226 101.304 24.4674 101.175 21.6368C101.154 21.0578 101.143 20.125 101.143 18.8383C101.143 17.5303 101.154 16.576 101.175 15.9756C101.24 14.1314 101.722 12.5445 102.623 11.215C103.545 9.88543 104.799 8.87756 106.386 8.19134C107.973 7.50513 109.817 7.16203 111.919 7.16203C114.02 7.16203 115.865 7.50513 117.451 8.19134C119.038 8.87756 120.282 9.88543 121.183 11.215C122.105 12.5445 122.598 14.1314 122.662 15.9756C122.705 17.1764 122.727 18.1307 122.727 18.8383C122.727 19.546 122.705 20.4788 122.662 21.6368C122.534 24.4674 121.515 26.6226 119.607 28.1022C117.698 29.5818 115.135 30.3217 111.919 30.3217ZM111.919 24.0493C112.648 24.0493 113.216 23.8348 113.624 23.4059C114.053 22.9771 114.278 22.323 114.299 21.4438C114.342 20.2 114.364 19.2887 114.364 18.7097C114.364 18.0878 114.342 17.1979 114.299 16.0399C114.278 15.1607 114.053 14.5066 113.624 14.0778C113.195 13.6489 112.627 13.4344 111.919 13.4344C111.211 13.4344 110.643 13.6489 110.214 14.0778C109.785 14.5066 109.56 15.1607 109.539 16.0399C109.517 16.6189 109.506 17.5088 109.506 18.7097C109.506 19.9105 109.517 20.8219 109.539 21.4438C109.56 22.323 109.774 22.9771 110.182 23.4059C110.611 23.8348 111.19 24.0493 111.919 24.0493ZM131.262 30C131.026 30 130.822 29.9142 130.651 29.7427C130.479 29.5711 130.394 29.3674 130.394 29.1315V14.3994H125.054C124.818 14.3994 124.614 14.3136 124.443 14.1421C124.271 13.9705 124.185 13.7668 124.185 13.5309V8.35218C124.185 8.11629 124.271 7.91257 124.443 7.74102C124.614 7.56947 124.818 7.48369 125.054 7.48369H143.903C144.139 7.48369 144.343 7.56947 144.515 7.74102C144.686 7.91257 144.772 8.11629 144.772 8.35218V13.5309C144.772 13.7668 144.686 13.9705 144.515 14.1421C144.343 14.3136 144.139 14.3994 143.903 14.3994H138.564V29.1315C138.564 29.3674 138.478 29.5711 138.306 29.7427C138.135 29.9142 137.931 30 137.695 30H131.262ZM147.951 30C147.715 30 147.511 29.9142 147.34 29.7427C147.168 29.5711 147.082 29.3674 147.082 29.1315V8.35218C147.082 8.11629 147.168 7.91257 147.34 7.74102C147.511 7.56947 147.715 7.48369 147.951 7.48369H157.697C160.699 7.48369 163.058 8.14846 164.774 9.47799C166.511 10.8075 167.379 12.7697 167.379 15.3644C167.379 17.9377 166.521 19.8569 164.806 21.1221C163.09 22.3659 160.721 22.9878 157.697 22.9878H155.445V29.1315C155.445 29.3674 155.36 29.5711 155.188 29.7427C155.017 29.9142 154.813 30 154.577 30H147.951ZM157.536 17.037C157.922 17.037 158.265 16.8977 158.566 16.6189C158.866 16.3187 159.016 15.8791 159.016 15.3001C159.016 14.8069 158.898 14.378 158.662 14.0134C158.426 13.6489 158.051 13.4666 157.536 13.4666H155.285V17.037H157.536ZM170.63 30C170.395 30 170.191 29.9142 170.019 29.7427C169.848 29.5711 169.762 29.3674 169.762 29.1315V8.35218C169.762 8.11629 169.848 7.91257 170.019 7.74102C170.191 7.56947 170.395 7.48369 170.63 7.48369H180.152C183.24 7.48369 185.652 8.18062 187.389 9.57449C189.126 10.9469 189.994 12.8554 189.994 15.3001C189.994 16.6939 189.683 17.927 189.062 18.9992C188.44 20.0499 187.593 20.9184 186.52 21.6046L190.477 28.9385C190.541 29.0672 190.573 29.1851 190.573 29.2923C190.573 29.4853 190.498 29.6569 190.348 29.807C190.22 29.9357 190.059 30 189.866 30H183.272C182.886 30 182.575 29.9142 182.339 29.7427C182.124 29.5497 181.974 29.346 181.889 29.1315L179.122 22.9878H177.803V29.1315C177.803 29.3674 177.718 29.5711 177.546 29.7427C177.375 29.9142 177.171 30 176.935 30H170.63ZM180.152 16.8762C180.623 16.8762 180.988 16.7261 181.245 16.4259C181.503 16.1042 181.631 15.7075 181.631 15.2357C181.631 14.764 181.503 14.3565 181.245 14.0134C181.009 13.6489 180.645 13.4666 180.152 13.4666H177.803V16.8762H180.152ZM193.844 30C193.608 30 193.404 29.9142 193.233 29.7427C193.061 29.5711 192.976 29.3674 192.976 29.1315V8.35218C192.976 8.11629 193.061 7.91257 193.233 7.74102C193.404 7.56947 193.608 7.48369 193.844 7.48369H200.406C200.642 7.48369 200.846 7.56947 201.017 7.74102C201.189 7.91257 201.274 8.11629 201.274 8.35218V29.1315C201.274 29.3674 201.189 29.5711 201.017 29.7427C200.846 29.9142 200.642 30 200.406 30H193.844ZM205.686 30C205.451 30 205.247 29.9142 205.075 29.7427C204.904 29.5711 204.818 29.3674 204.818 29.1315V8.35218C204.818 8.11629 204.904 7.91257 205.075 7.74102C205.247 7.56947 205.451 7.48369 205.686 7.48369H210.769C211.369 7.48369 211.809 7.7303 212.088 8.22351L217.524 17.1335V8.35218C217.524 8.11629 217.609 7.91257 217.781 7.74102C217.953 7.56947 218.156 7.48369 218.392 7.48369H224.214C224.45 7.48369 224.654 7.56947 224.825 7.74102C224.997 7.91257 225.083 8.11629 225.083 8.35218V29.1315C225.083 29.3674 224.997 29.5711 224.825 29.7427C224.654 29.9142 224.45 30 224.214 30H219.132C218.767 30 218.489 29.9249 218.296 29.7748C218.103 29.6247 217.942 29.4532 217.813 29.2602L212.377 21.0578V29.1315C212.377 29.3674 212.291 29.5711 212.12 29.7427C211.948 29.9142 211.744 30 211.509 30H205.686ZM234.483 30C234.247 30 234.043 29.9142 233.872 29.7427C233.7 29.5711 233.614 29.3674 233.614 29.1315V14.3994H228.275C228.039 14.3994 227.835 14.3136 227.664 14.1421C227.492 13.9705 227.406 13.7668 227.406 13.5309V8.35218C227.406 8.11629 227.492 7.91257 227.664 7.74102C227.835 7.56947 228.039 7.48369 228.275 7.48369H247.124C247.36 7.48369 247.564 7.56947 247.735 7.74102C247.907 7.91257 247.993 8.11629 247.993 8.35218V13.5309C247.993 13.7668 247.907 13.9705 247.735 14.1421C247.564 14.3136 247.36 14.3994 247.124 14.3994H241.784V29.1315C241.784 29.3674 241.699 29.5711 241.527 29.7427C241.356 29.9142 241.152 30 240.916 30H234.483ZM259.695 30.3217C257.422 30.3217 255.492 30.0107 253.906 29.3888C252.34 28.767 251.161 27.9414 250.367 26.912C249.574 25.8613 249.156 24.714 249.113 23.4703C249.113 23.2773 249.177 23.1164 249.306 22.9878C249.456 22.8377 249.627 22.7626 249.82 22.7626H255.932C256.232 22.7626 256.468 22.8055 256.64 22.8913C256.833 22.9556 257.058 23.095 257.315 23.3094C257.937 23.8027 258.73 24.0493 259.695 24.0493C260.425 24.0493 261.004 23.9742 261.432 23.8241C261.883 23.6525 262.108 23.4274 262.108 23.1486C262.108 22.7626 261.818 22.4731 261.239 22.2801C260.66 22.0657 259.567 21.8512 257.958 21.6368C252.426 20.9077 249.66 18.5488 249.66 14.5602C249.66 13.1235 250.067 11.8476 250.882 10.7325C251.718 9.59593 252.876 8.71673 254.356 8.09485C255.836 7.47297 257.54 7.16203 259.47 7.16203C261.486 7.16203 263.255 7.50513 264.778 8.19134C266.3 8.87756 267.469 9.74604 268.284 10.7968C269.099 11.8261 269.528 12.834 269.57 13.8204C269.57 14.0134 269.495 14.185 269.345 14.3351C269.217 14.4637 269.067 14.5281 268.895 14.5281H262.462C262.162 14.5281 261.926 14.4959 261.754 14.4316C261.583 14.3458 261.39 14.2064 261.175 14.0134C260.725 13.6274 260.157 13.4344 259.47 13.4344C258.441 13.4344 257.926 13.7346 257.926 14.3351C257.926 14.6567 258.173 14.9248 258.666 15.1392C259.181 15.3537 260.124 15.5467 261.497 15.7182C263.641 15.997 265.357 16.4152 266.643 16.9727C267.951 17.5303 268.895 18.2808 269.474 19.2243C270.074 20.1464 270.375 21.3151 270.375 22.7304C270.375 24.253 269.914 25.5932 268.991 26.7512C268.069 27.8878 266.793 28.767 265.164 29.3888C263.555 30.0107 261.733 30.3217 259.695 30.3217Z" fill="#436F8A"/>
</svg>
